
  
[
    {
        "title": "loremka1",
        "author": "en1", 
        "image":"https://picsum.photos/g/300/300", 
        "contents": "Lorem ipsum dolor sit amet, consectetur adipiscing elit. Sed ac orci elementum, commodo arcu ac, commodo metus. Aenean facilisis suscipit orci, vitae egestas enim ultricies suscipit. Quisque lacinia egestas dolor. Quisque vitae sollicitudin ipsum, sit amet aliquet libero. Ut sed finibus ipsum. Nam vestibulum id lacus et pharetra. Duis quis enim quam. In hac habitasse platea dictumst. Sed congue lectus quis erat sollicitudin lacinia. Aenean porttitor fermentum porttitor."
    },
    {
        "title": "loremka2", 
        "author": "en2", 
        "image":"https://picsum.photos/g/300/300", 
        "contents": "Lorem ipsum dolor sit amet, consectetur adipiscing elit. Sed ac orci elementum, commodo arcu ac, commodo metus. Aenean facilisis suscipit orci, vitae egestas enim ultricies suscipit. Quisque lacinia egestas dolor. Quisque vitae sollicitudin ipsum, sit amet aliquet libero. Ut sed finibus ipsum. Nam vestibulum id lacus et pharetra. Duis quis enim quam. In hac habitasse platea dictumst. Sed congue lectus quis erat sollicitudin lacinia. Aenean porttitor fermentum porttitor."
    },
    {
        "title": "loremka3", 
        "author": "en3", 
        "image":"https://picsum.photos/g/300/300", 
        "contents": "Lorem ipsum dolor sit amet, consectetur adipiscing elit. Sed ac orci elementum, commodo arcu ac, commodo metus. Aenean facilisis suscipit orci, vitae egestas enim ultricies suscipit. Quisque lacinia egestas dolor. Quisque vitae sollicitudin ipsum, sit amet aliquet libero. Ut sed finibus ipsum. Nam vestibulum id lacus et pharetra. Duis quis enim quam. In hac habitasse platea dictumst. Sed congue lectus quis erat sollicitudin lacinia. Aenean porttitor fermentum porttitor."
    },
    {
        "title": "loremka4", 
        "author": "en4", 
        "image":"https://picsum.photos/g/300/300", 
        "contents": "Lorem ipsum dolor sit amet, consectetur adipiscing elit. Sed ac orci elementum, commodo arcu ac, commodo metus. Aenean facilisis suscipit orci, vitae egestas enim ultricies suscipit. Quisque lacinia egestas dolor. Quisque vitae sollicitudin ipsum, sit amet aliquet libero. Ut sed finibus ipsum. Nam vestibulum id lacus et pharetra. Duis quis enim quam. In hac habitasse platea dictumst. Sed congue lectus quis erat sollicitudin lacinia. Aenean porttitor fermentum porttitor."
    }
]